{
  "project_info": {
    "project_number": "393395750587",
    "firebase_url": "https://jeu-du-phenix.firebaseio.com",
    "project_id": "jeu-du-phenix",
    "storage_bucket": "jeu-du-phenix.appspot.com"
  },
  "client": [
    {
      "client_info": {
        "mobilesdk_app_id": "1:393395750587:android:026f24411d234af0",
        "android_client_info": {
          "package_name": "com.matkaline.phoenix"
        }
      },
      "oauth_client": [
        {
          "client_id": "393395750587-thhi7harsq6gd16saru6geeel8sjfa2b.apps.googleusercontent.com",
          "client_type": 1,
          "android_info": {
            "package_name": "com.matkaline.phoenix",
            "certificate_hash": "ad7d8baf446489af59d2b7e450dc6f7c3e1d66bb"
          }
        },
        {
          "client_id": "393395750587-fk7m2hu56un0c6m19mnslie9ha1o1qqa.apps.googleusercontent.com",
          "client_type": 3
        },
        {
          "client_id": "393395750587-3c3lic4jj08105p22qvtee973po9osgj.apps.googleusercontent.com",
          "client_type": 3
        },
        {
          "client_id": "393395750587-aeus8g5o0ut09vb0r4elik9dak5hh306.apps.googleusercontent.com",
          "client_type": 1,
          "android_info": {
            "package_name": "com.matkaline.phoenix",
            "certificate_hash": "7134268a87acf7e157b47c4c30f2e1abf8d8eb36"
          }
        },
        {
          "client_id": "393395750587-5e86pk66jl9e3ik8jg263cvk345elfvm.apps.googleusercontent.com",
          "client_type": 3
        }
      ],
      "api_key": [
        {
          "current_key": "AIzaSyBBB5NMtUVmrBubnLherFpdur78xas5e9c"
        }
      ],
      "services": {
        "analytics_service": {
          "status": 1
        },
        "appinvite_service": {
          "status": 2,
          "other_platform_oauth_client": [
            {
              "client_id": "393395750587-fk7m2hu56un0c6m19mnslie9ha1o1qqa.apps.googleusercontent.com",
              "client_type": 3
            },
            {
              "client_id": "393395750587-bcv6fkpunp6s230hq03fg70hngspbb81.apps.googleusercontent.com",
              "client_type": 2,
              "ios_info": {
                "bundle_id": "com.matkaline.phoenix"
              }
            }
          ]
        },
        "ads_service": {
          "status": 2
        }
      }
    }
  ],
  "configuration_version": "1"
}